"LeakNet/LeakNetUpdatesDialog.res"
{
	"CLeakNetUpdatesDialog"
	{
		"ControlName"		"Frame"
		"fieldName"		"CLeakNetUpdatesDialog"
		"xpos"		"5"
		"ypos"		"5"
		"wide"		"640"
		"tall"		"480"
		"autoResize"		"0"
		"pinCorner"		"0"
		"visible"		"1"
		"enabled"		"1"
		"tabPosition"		"0"
		"settitlebarvisible"		"1"
	}
	"Label1"
	{
		"ControlName"		"Label"
		"fieldName"		"Label1"
		"xpos"		"111"
		"ypos"		"118"
		"wide"		"64"
		"tall"		"24"
		"autoResize"		"0"
		"pinCorner"		"0"
		"visible"		"1"
		"enabled"		"1"
		"tabPosition"		"0"
		"labelText"		"Label"
		"textAlignment"		"west"
		"dulltext"		"0"
		"brighttext"		"0"
	}
}
