"Friends/DialogAuthRequest.res"
{
	"DialogAuthRequest"
	{
		"ControlName"		"Frame"
		"fieldName"		"DialogAuthRequest"
		"xpos"		"404"
		"ypos"		"220"
		"wide"		"472"
		"tall"		"204"
		"FgColor"		"255 170 0 255"
		"BgColor"		"70 70 70 192"
		"autoResize"		"0"
		"pinCorner"		"0"
		"visible"		"1"
		"enabled"		"1"
		"tabPosition"		"0"
		"settitlebarvisible"		"1"
	}
	"OKButton"
	{
		"ControlName"		"Button"
		"fieldName"		"OKButton"
		"xpos"		"232"
		"ypos"		"168"
		"wide"		"108"
		"tall"		"24"
		"FgColor"		"255 170 0 255"
		"BgColor"		"70 70 70 0"
		"autoResize"		"0"
		"pinCorner"		"0"
		"visible"		"1"
		"enabled"		"1"
		"tabPosition"		"2"
		"labelText"		"#TrackerUI_OK"
		"textAlignment"		"west"
		"dulltext"		"0"
		"brighttext"		"0"
		"command"		"OK"
		"Default"		"1"
	}
	"CancelButton"
	{
		"ControlName"		"Button"
		"fieldName"		"CancelButton"
		"xpos"		"356"
		"ypos"		"168"
		"wide"		"104"
		"tall"		"24"
		"FgColor"		"255 170 0 255"
		"BgColor"		"70 70 70 0"
		"autoResize"		"0"
		"pinCorner"		"0"
		"visible"		"1"
		"enabled"		"1"
		"tabPosition"		"3"
		"labelText"		"#TrackerUI_Cancel"
		"textAlignment"		"west"
		"dulltext"		"0"
		"brighttext"		"0"
		"command"		"Cancel"
		"Default"		"0"
	}
	"InfoText"
	{
		"ControlName"		"Label"
		"fieldName"		"InfoText"
		"xpos"		"4"
		"ypos"		"84"
		"wide"		"108"
		"tall"		"24"
		"FgColor"		"255 170 0 255"
		"BgColor"		"70 70 70 0"
		"autoResize"		"0"
		"pinCorner"		"0"
		"visible"		"1"
		"enabled"		"1"
		"tabPosition"		"0"
		"labelText"		"#TrackerUI_DoYouWantTo"
		"textAlignment"		"west"
		"dulltext"		"1"
		"brighttext"		"0"
	}
	"NameLabel"
	{
		"ControlName"		"Label"
		"fieldName"		"NameLabel"
		"xpos"		"20"
		"ypos"		"32"
		"wide"		"408"
		"tall"		"48"
		"FgColor"		"255 170 0 255"
		"BgColor"		"70 70 70 0"
		"autoResize"		"0"
		"pinCorner"		"0"
		"visible"		"1"
		"enabled"		"1"
		"tabPosition"		"0"
		"labelText"		"test4 wishes to add you to his/her contact list.
test4@testers.com"
		"textAlignment"		"west"
		"dulltext"		"0"
		"brighttext"		"0"
	}
	"AcceptButton"
	{
		"ControlName"		"RadioButton"
		"fieldName"		"AcceptButton"
		"xpos"		"28"
		"ypos"		"108"
		"wide"		"436"
		"tall"		"24"
		"FgColor"		"255 170 0 255"
		"BgColor"		"70 70 70 0"
		"autoResize"		"0"
		"pinCorner"		"0"
		"visible"		"1"
		"enabled"		"1"
		"tabPosition"		"1"
		"SubTabPosition"	"1"
		"labelText"		"#TrackerUI_AllowPersonToSeeYou"
		"textAlignment"		"west"
		"dulltext"		"0"
		"brighttext"		"0"
		"command"		"accept"
		"Default"		"0"
	}
	"DeclineButton"
	{
		"ControlName"		"RadioButton"
		"fieldName"		"DeclineButton"
		"xpos"		"28"
		"ypos"		"132"
		"wide"		"436"
		"tall"		"24"
		"FgColor"		"255 170 0 255"
		"BgColor"		"70 70 70 0"
		"autoResize"		"0"
		"pinCorner"		"0"
		"visible"		"1"
		"enabled"		"1"
		"tabPosition"		"1"
		"SubTabPosition"	"2"
		"labelText"		"#TrackerUI_BlockThisPerson"
		"textAlignment"		"west"
		"dulltext"		"0"
		"brighttext"		"0"
		"command"		"decline"
		"Default"		"0"
	}
}
