"Friends/SubPanelLoginUser2.res"
{
	"ProgressBar"
	{
		"ControlName"		"ProgressBar"
		"fieldName"		"ProgressBar"
		"xpos"		"30"
		"ypos"		"15"
		"wide"		"400"
		"tall"		"24"
		"autoResize"		"0"
		"pinCorner"		"0"
		"visible"		"1"
		"enabled"		"1"
		"tabPosition"		"0"
	}
	"InfoText"
	{
		"ControlName"		"Label"
		"fieldName"		"InfoText"
		"xpos"		"28"
		"ypos"		"73"
		"wide"		"400"
		"tall"		"200"
		"autoResize"		"0"
		"pinCorner"		"0"
		"visible"		"1"
		"enabled"		"1"
		"tabPosition"		"0"
		"labelText"		"The password you entered is not valid.

Hit the 'Back' Button to retry."
		"textAlignment"		"west"
		"dulltext"		"0"
		"brighttext"		"0"
	}
	"ProgressText"
	{
		"ControlName"		"Label"
		"fieldName"		"ProgressText"
		"xpos"		"29"
		"ypos"		"40"
		"wide"		"300"
		"tall"		"32"
		"autoResize"		"0"
		"pinCorner"		"0"
		"visible"		"1"
		"enabled"		"1"
		"tabPosition"		"0"
		"labelText"		"Login failed"
		"textAlignment"		"west"
		"dulltext"		"0"
		"brighttext"		"0"
	}
}
