"Friends/SubPanelLoginUser.res"
{
	"EmailEdit"
	{
		"ControlName"		"TextEntry"
		"fieldName"		"EmailEdit"
		"xpos"		"134"
		"ypos"		"115"
		"wide"		"200"
		"tall"		"24"
		"autoResize"		"0"
		"pinCorner"		"0"
		"visible"		"1"
		"enabled"		"1"
		"tabPosition"		"0"
		"textHidden"		"0"
		"editable"		"1"
		"maxchars"		"-1"
		"NumericInputOnly"		"0"
	}
	"PasswordEdit"
	{
		"ControlName"		"TextEntry"
		"fieldName"		"PasswordEdit"
		"xpos"		"134"
		"ypos"		"146"
		"wide"		"200"
		"tall"		"24"
		"autoResize"		"0"
		"pinCorner"		"0"
		"visible"		"1"
		"enabled"		"1"
		"tabPosition"		"0"
		"textHidden"		"0"
		"editable"		"1"
		"maxchars"		"-1"
		"NumericInputOnly"		"0"
	}
}
