"Friends/SubPanelFindBuddyComplete.res"
{
	"InfoText"
	{
		"ControlName"		"Label"
		"fieldName"		"InfoText"
		"xpos"		"32"
		"ypos"		"32"
		"wide"		"380"
		"tall"		"60"
		"autoResize"		"0"
		"pinCorner"		"0"
		"visible"		"1"
		"enabled"		"1"
		"tabPosition"		"0"
		"labelText"		"#TrackerUI_AuthRequestSent"
		"textAlignment"		"north-west"
		"dulltext"		"0"
		"brighttext"		"0"
	}
}
