"Friends/TrackerDialog.res"
{
	"Frame"
	{
		"tabPosition"		"0"
		"enabled"		"1"
		"BgColor"		"70 70 70 255"
		"FgColor"		"255 170 0 255"
		"tall"		"400"
		"wide"		"200"
		"ypos"		"413"
		"xpos"		"780"
		"fieldName"		"Frame"
		"ControlName"		"CTrackerDialog"
	}
}
